{
  "file_generated_by": "FlutterFire CLI",
  "purpose": "FirebaseAppID & ProjectID for this Firebase app in this directory",
  "GOOGLE_APP_ID": "1:913425454846:ios:0b1aa7c15f110e4f7637af",
  "FIREBASE_PROJECT_ID": "party-swipe-mobile-0",
  "GCM_SENDER_ID": "913425454846"
}